info face="Fixedsys" size=16 bold=0 italic=0 charset="" unicode=1 stretchH=100 smooth=1 aa=1 padding=1,1,1,1 spacing=0,0 outline=0
common lineHeight=15 base=12 scaleW=256 scaleH=128 pages=1 packed=0 alphaChnl=0 redChnl=4 greenChnl=4 blueChnl=4
page id=0 file="fixedsys_small_0.png"
chars count=197
char id=32   x=0     y=0     width=26    height=17    xoffset=-9    yoffset=-1    xadvance=8     page=0  chnl=15
char id=33   x=68    y=102   width=6     height=17    xoffset=1     yoffset=-1    xadvance=8     page=0  chnl=15
char id=34   x=144   y=68    width=8     height=17    xoffset=0     yoffset=-1    xadvance=8     page=0  chnl=15
char id=35   x=109   y=17    width=9     height=17    xoffset=0     yoffset=-1    xadvance=8     page=0  chnl=15
char id=36   x=152   y=68    width=8     height=17    xoffset=0     yoffset=-1    xadvance=8     page=0  chnl=15
char id=37   x=70    y=17    width=10    height=17    xoffset=-1    yoffset=-1    xadvance=8     page=0  chnl=15
char id=38   x=127   y=17    width=9     height=17    xoffset=0     yoffset=-1    xadvance=8     page=0  chnl=15
char id=39   x=152   y=102   width=4     height=17    xoffset=2     yoffset=-1    xadvance=8     page=0  chnl=15
char id=40   x=104   y=102   width=6     height=17    xoffset=1     yoffset=-1    xadvance=8     page=0  chnl=15
char id=41   x=80    y=102   width=6     height=17    xoffset=1     yoffset=-1    xadvance=8     page=0  chnl=15
char id=42   x=154   y=17    width=9     height=17    xoffset=0     yoffset=-1    xadvance=8     page=0  chnl=15
char id=43   x=184   y=68    width=8     height=17    xoffset=0     yoffset=-1    xadvance=8     page=0  chnl=15
char id=44   x=142   y=102   width=5     height=17    xoffset=2     yoffset=-1    xadvance=8     page=0  chnl=15
char id=45   x=40    y=85    width=8     height=17    xoffset=0     yoffset=-1    xadvance=8     page=0  chnl=15
char id=46   x=137   y=102   width=5     height=17    xoffset=2     yoffset=-1    xadvance=8     page=0  chnl=15
char id=47   x=64    y=85    width=8     height=17    xoffset=0     yoffset=-1    xadvance=8     page=0  chnl=15
char id=48   x=152   y=85    width=8     height=17    xoffset=1     yoffset=-1    xadvance=8     page=0  chnl=15
char id=49   x=30    y=102   width=7     height=17    xoffset=0     yoffset=-1    xadvance=8     page=0  chnl=15
char id=50   x=184   y=85    width=8     height=17    xoffset=0     yoffset=-1    xadvance=8     page=0  chnl=15
char id=51   x=248   y=85    width=8     height=17    xoffset=0     yoffset=-1    xadvance=8     page=0  chnl=15
char id=52   x=235   y=17    width=9     height=17    xoffset=0     yoffset=-1    xadvance=8     page=0  chnl=15
char id=53   x=18    y=34    width=8     height=17    xoffset=0     yoffset=-1    xadvance=8     page=0  chnl=15
char id=54   x=26    y=34    width=8     height=17    xoffset=0     yoffset=-1    xadvance=8     page=0  chnl=15
char id=55   x=34    y=34    width=8     height=17    xoffset=0     yoffset=-1    xadvance=8     page=0  chnl=15
char id=56   x=208   y=51    width=8     height=17    xoffset=0     yoffset=-1    xadvance=8     page=0  chnl=15
char id=57   x=42    y=34    width=8     height=17    xoffset=0     yoffset=-1    xadvance=8     page=0  chnl=15
char id=58   x=122   y=102   width=5     height=17    xoffset=2     yoffset=-1    xadvance=8     page=0  chnl=15
char id=59   x=147   y=102   width=5     height=17    xoffset=2     yoffset=-1    xadvance=8     page=0  chnl=15
char id=60   x=50    y=34    width=8     height=17    xoffset=0     yoffset=-1    xadvance=8     page=0  chnl=15
char id=61   x=58    y=34    width=8     height=17    xoffset=0     yoffset=-1    xadvance=8     page=0  chnl=15
char id=62   x=66    y=34    width=8     height=17    xoffset=0     yoffset=-1    xadvance=8     page=0  chnl=15
char id=63   x=74    y=34    width=8     height=17    xoffset=0     yoffset=-1    xadvance=8     page=0  chnl=15
char id=64   x=212   y=0     width=10    height=17    xoffset=-1    yoffset=-1    xadvance=8     page=0  chnl=15
char id=65   x=82    y=34    width=8     height=17    xoffset=0     yoffset=-1    xadvance=8     page=0  chnl=15
char id=66   x=90    y=34    width=8     height=17    xoffset=0     yoffset=-1    xadvance=8     page=0  chnl=15
char id=67   x=98    y=34    width=8     height=17    xoffset=0     yoffset=-1    xadvance=8     page=0  chnl=15
char id=68   x=106   y=34    width=8     height=17    xoffset=0     yoffset=-1    xadvance=8     page=0  chnl=15
char id=69   x=114   y=34    width=8     height=17    xoffset=0     yoffset=-1    xadvance=8     page=0  chnl=15
char id=70   x=122   y=34    width=8     height=17    xoffset=0     yoffset=-1    xadvance=8     page=0  chnl=15
char id=71   x=130   y=34    width=8     height=17    xoffset=0     yoffset=-1    xadvance=8     page=0  chnl=15
char id=72   x=138   y=34    width=8     height=17    xoffset=0     yoffset=-1    xadvance=8     page=0  chnl=15
char id=73   x=110   y=102   width=6     height=17    xoffset=1     yoffset=-1    xadvance=8     page=0  chnl=15
char id=74   x=146   y=34    width=8     height=17    xoffset=0     yoffset=-1    xadvance=8     page=0  chnl=15
char id=75   x=154   y=34    width=8     height=17    xoffset=0     yoffset=-1    xadvance=8     page=0  chnl=15
char id=76   x=162   y=34    width=8     height=17    xoffset=0     yoffset=-1    xadvance=8     page=0  chnl=15
char id=77   x=226   y=17    width=9     height=17    xoffset=0     yoffset=-1    xadvance=8     page=0  chnl=15
char id=78   x=244   y=17    width=9     height=17    xoffset=0     yoffset=-1    xadvance=8     page=0  chnl=15
char id=79   x=170   y=34    width=8     height=17    xoffset=0     yoffset=-1    xadvance=8     page=0  chnl=15
char id=80   x=178   y=34    width=8     height=17    xoffset=0     yoffset=-1    xadvance=8     page=0  chnl=15
char id=81   x=186   y=34    width=8     height=17    xoffset=0     yoffset=-1    xadvance=8     page=0  chnl=15
char id=82   x=194   y=34    width=8     height=17    xoffset=0     yoffset=-1    xadvance=8     page=0  chnl=15
char id=83   x=202   y=34    width=8     height=17    xoffset=0     yoffset=-1    xadvance=8     page=0  chnl=15
char id=84   x=210   y=34    width=8     height=17    xoffset=0     yoffset=-1    xadvance=8     page=0  chnl=15
char id=85   x=218   y=34    width=8     height=17    xoffset=0     yoffset=-1    xadvance=8     page=0  chnl=15
char id=86   x=226   y=34    width=8     height=17    xoffset=0     yoffset=-1    xadvance=8     page=0  chnl=15
char id=87   x=181   y=17    width=9     height=17    xoffset=0     yoffset=-1    xadvance=8     page=0  chnl=15
char id=88   x=234   y=34    width=8     height=17    xoffset=0     yoffset=-1    xadvance=8     page=0  chnl=15
char id=89   x=242   y=34    width=8     height=17    xoffset=0     yoffset=-1    xadvance=8     page=0  chnl=15
char id=90   x=0     y=51    width=8     height=17    xoffset=0     yoffset=-1    xadvance=8     page=0  chnl=15
char id=91   x=98    y=102   width=6     height=17    xoffset=1     yoffset=-1    xadvance=8     page=0  chnl=15
char id=92   x=8     y=51    width=8     height=17    xoffset=0     yoffset=-1    xadvance=8     page=0  chnl=15
char id=93   x=86    y=102   width=6     height=17    xoffset=1     yoffset=-1    xadvance=8     page=0  chnl=15
char id=94   x=16    y=51    width=8     height=17    xoffset=0     yoffset=-1    xadvance=8     page=0  chnl=15
char id=95   x=202   y=0     width=10    height=17    xoffset=-1    yoffset=-1    xadvance=8     page=0  chnl=15
char id=96   x=92    y=102   width=6     height=17    xoffset=1     yoffset=-1    xadvance=8     page=0  chnl=15
char id=97   x=24    y=51    width=8     height=17    xoffset=0     yoffset=-1    xadvance=8     page=0  chnl=15
char id=98   x=32    y=51    width=8     height=17    xoffset=0     yoffset=-1    xadvance=8     page=0  chnl=15
char id=99   x=40    y=51    width=8     height=17    xoffset=0     yoffset=-1    xadvance=8     page=0  chnl=15
char id=100  x=48    y=51    width=8     height=17    xoffset=0     yoffset=-1    xadvance=8     page=0  chnl=15
char id=101  x=56    y=51    width=8     height=17    xoffset=0     yoffset=-1    xadvance=8     page=0  chnl=15
char id=102  x=64    y=51    width=8     height=17    xoffset=0     yoffset=-1    xadvance=8     page=0  chnl=15
char id=103  x=72    y=51    width=8     height=17    xoffset=0     yoffset=-1    xadvance=8     page=0  chnl=15
char id=104  x=80    y=51    width=8     height=17    xoffset=0     yoffset=-1    xadvance=8     page=0  chnl=15
char id=105  x=88    y=51    width=8     height=17    xoffset=0     yoffset=-1    xadvance=8     page=0  chnl=15
char id=106  x=16    y=102   width=7     height=17    xoffset=0     yoffset=-1    xadvance=8     page=0  chnl=15
char id=107  x=96    y=51    width=8     height=17    xoffset=0     yoffset=-1    xadvance=8     page=0  chnl=15
char id=108  x=104   y=51    width=8     height=17    xoffset=0     yoffset=-1    xadvance=8     page=0  chnl=15
char id=109  x=190   y=17    width=9     height=17    xoffset=0     yoffset=-1    xadvance=8     page=0  chnl=15
char id=110  x=112   y=51    width=8     height=17    xoffset=0     yoffset=-1    xadvance=8     page=0  chnl=15
char id=111  x=120   y=51    width=8     height=17    xoffset=0     yoffset=-1    xadvance=8     page=0  chnl=15
char id=112  x=128   y=51    width=8     height=17    xoffset=0     yoffset=-1    xadvance=8     page=0  chnl=15
char id=113  x=136   y=51    width=8     height=17    xoffset=0     yoffset=-1    xadvance=8     page=0  chnl=15
char id=114  x=144   y=51    width=8     height=17    xoffset=0     yoffset=-1    xadvance=8     page=0  chnl=15
char id=115  x=152   y=51    width=8     height=17    xoffset=0     yoffset=-1    xadvance=8     page=0  chnl=15
char id=116  x=160   y=51    width=8     height=17    xoffset=0     yoffset=-1    xadvance=8     page=0  chnl=15
char id=117  x=168   y=51    width=8     height=17    xoffset=0     yoffset=-1    xadvance=8     page=0  chnl=15
char id=118  x=176   y=51    width=8     height=17    xoffset=0     yoffset=-1    xadvance=8     page=0  chnl=15
char id=119  x=118   y=17    width=9     height=17    xoffset=0     yoffset=-1    xadvance=8     page=0  chnl=15
char id=120  x=184   y=51    width=8     height=17    xoffset=0     yoffset=-1    xadvance=8     page=0  chnl=15
char id=121  x=163   y=17    width=9     height=17    xoffset=-1    yoffset=-1    xadvance=8     page=0  chnl=15
char id=122  x=192   y=51    width=8     height=17    xoffset=0     yoffset=-1    xadvance=8     page=0  chnl=15
char id=123  x=37    y=102   width=7     height=17    xoffset=0     yoffset=-1    xadvance=8     page=0  chnl=15
char id=124  x=252   y=0     width=4     height=17    xoffset=2     yoffset=-1    xadvance=8     page=0  chnl=15
char id=125  x=23    y=102   width=7     height=17    xoffset=1     yoffset=-1    xadvance=8     page=0  chnl=15
char id=126  x=192   y=0     width=10    height=17    xoffset=-1    yoffset=-1    xadvance=8     page=0  chnl=15
char id=127  x=200   y=51    width=8     height=17    xoffset=0     yoffset=-1    xadvance=8     page=0  chnl=15
char id=129  x=26    y=0     width=26    height=17    xoffset=-9    yoffset=-1    xadvance=8     page=0  chnl=15
char id=141  x=52    y=0     width=26    height=17    xoffset=-9    yoffset=-1    xadvance=8     page=0  chnl=15
char id=143  x=78    y=0     width=26    height=17    xoffset=-9    yoffset=-1    xadvance=8     page=0  chnl=15
char id=144  x=156   y=0     width=26    height=17    xoffset=-9    yoffset=-1    xadvance=8     page=0  chnl=15
char id=157  x=104   y=0     width=26    height=17    xoffset=-9    yoffset=-1    xadvance=8     page=0  chnl=15
char id=160  x=130   y=0     width=26    height=17    xoffset=-9    yoffset=-1    xadvance=8     page=0  chnl=15
char id=161  x=116   y=102   width=6     height=17    xoffset=1     yoffset=-1    xadvance=8     page=0  chnl=15
char id=162  x=216   y=51    width=8     height=17    xoffset=0     yoffset=-1    xadvance=8     page=0  chnl=15
char id=163  x=0     y=34    width=9     height=17    xoffset=-1    yoffset=-1    xadvance=8     page=0  chnl=15
char id=164  x=224   y=51    width=8     height=17    xoffset=0     yoffset=-1    xadvance=8     page=0  chnl=15
char id=165  x=232   y=51    width=8     height=17    xoffset=0     yoffset=-1    xadvance=8     page=0  chnl=15
char id=166  x=156   y=102   width=4     height=17    xoffset=2     yoffset=-1    xadvance=8     page=0  chnl=15
char id=167  x=240   y=51    width=8     height=17    xoffset=0     yoffset=-1    xadvance=8     page=0  chnl=15
char id=168  x=248   y=51    width=8     height=17    xoffset=0     yoffset=-1    xadvance=8     page=0  chnl=15
char id=169  x=80    y=17    width=10    height=17    xoffset=-1    yoffset=-1    xadvance=8     page=0  chnl=15
char id=170  x=0     y=68    width=8     height=17    xoffset=0     yoffset=-1    xadvance=8     page=0  chnl=15
char id=171  x=60    y=17    width=10    height=17    xoffset=-1    yoffset=-1    xadvance=8     page=0  chnl=15
char id=172  x=8     y=68    width=8     height=17    xoffset=0     yoffset=-1    xadvance=8     page=0  chnl=15
char id=173  x=16    y=68    width=8     height=17    xoffset=0     yoffset=-1    xadvance=8     page=0  chnl=15
char id=174  x=50    y=17    width=10    height=17    xoffset=-1    yoffset=-1    xadvance=8     page=0  chnl=15
char id=175  x=182   y=0     width=10    height=17    xoffset=-1    yoffset=-1    xadvance=8     page=0  chnl=15
char id=176  x=24    y=68    width=8     height=17    xoffset=0     yoffset=-1    xadvance=8     page=0  chnl=15
char id=177  x=32    y=68    width=8     height=17    xoffset=0     yoffset=-1    xadvance=8     page=0  chnl=15
char id=178  x=250   y=34    width=6     height=17    xoffset=1     yoffset=-1    xadvance=8     page=0  chnl=15
char id=179  x=44    y=102   width=6     height=17    xoffset=1     yoffset=-1    xadvance=8     page=0  chnl=15
char id=180  x=62    y=102   width=6     height=17    xoffset=1     yoffset=-1    xadvance=8     page=0  chnl=15
char id=181  x=90    y=17    width=10    height=17    xoffset=-1    yoffset=-1    xadvance=8     page=0  chnl=15
char id=182  x=172   y=17    width=9     height=17    xoffset=0     yoffset=-1    xadvance=8     page=0  chnl=15
char id=183  x=127   y=102   width=5     height=17    xoffset=2     yoffset=-1    xadvance=8     page=0  chnl=15
char id=184  x=74    y=102   width=6     height=17    xoffset=1     yoffset=-1    xadvance=8     page=0  chnl=15
char id=185  x=132   y=102   width=5     height=17    xoffset=1     yoffset=-1    xadvance=8     page=0  chnl=15
char id=186  x=40    y=68    width=8     height=17    xoffset=0     yoffset=-1    xadvance=8     page=0  chnl=15
char id=187  x=40    y=17    width=10    height=17    xoffset=-1    yoffset=-1    xadvance=8     page=0  chnl=15
char id=188  x=30    y=17    width=10    height=17    xoffset=-1    yoffset=-1    xadvance=8     page=0  chnl=15
char id=189  x=20    y=17    width=10    height=17    xoffset=-1    yoffset=-1    xadvance=8     page=0  chnl=15
char id=190  x=0     y=17    width=10    height=17    xoffset=-1    yoffset=-1    xadvance=8     page=0  chnl=15
char id=191  x=48    y=68    width=8     height=17    xoffset=0     yoffset=-1    xadvance=8     page=0  chnl=15
char id=192  x=56    y=68    width=8     height=17    xoffset=0     yoffset=-1    xadvance=8     page=0  chnl=15
char id=193  x=64    y=68    width=8     height=17    xoffset=0     yoffset=-1    xadvance=8     page=0  chnl=15
char id=194  x=72    y=68    width=8     height=17    xoffset=0     yoffset=-1    xadvance=8     page=0  chnl=15
char id=195  x=145   y=17    width=9     height=17    xoffset=0     yoffset=-1    xadvance=8     page=0  chnl=15
char id=196  x=80    y=68    width=8     height=17    xoffset=0     yoffset=-1    xadvance=8     page=0  chnl=15
char id=197  x=88    y=68    width=8     height=17    xoffset=0     yoffset=-1    xadvance=8     page=0  chnl=15
char id=198  x=136   y=17    width=9     height=17    xoffset=0     yoffset=-1    xadvance=8     page=0  chnl=15
char id=199  x=96    y=68    width=8     height=17    xoffset=0     yoffset=-1    xadvance=8     page=0  chnl=15
char id=200  x=104   y=68    width=8     height=17    xoffset=0     yoffset=-1    xadvance=8     page=0  chnl=15
char id=201  x=112   y=68    width=8     height=17    xoffset=0     yoffset=-1    xadvance=8     page=0  chnl=15
char id=202  x=120   y=68    width=8     height=17    xoffset=0     yoffset=-1    xadvance=8     page=0  chnl=15
char id=203  x=128   y=68    width=8     height=17    xoffset=0     yoffset=-1    xadvance=8     page=0  chnl=15
char id=204  x=50    y=102   width=6     height=17    xoffset=1     yoffset=-1    xadvance=8     page=0  chnl=15
char id=205  x=56    y=102   width=6     height=17    xoffset=1     yoffset=-1    xadvance=8     page=0  chnl=15
char id=206  x=136   y=68    width=8     height=17    xoffset=0     yoffset=-1    xadvance=8     page=0  chnl=15
char id=207  x=72    y=85    width=8     height=17    xoffset=0     yoffset=-1    xadvance=8     page=0  chnl=15
char id=208  x=199   y=17    width=9     height=17    xoffset=-1    yoffset=-1    xadvance=8     page=0  chnl=15
char id=209  x=208   y=17    width=9     height=17    xoffset=0     yoffset=-1    xadvance=8     page=0  chnl=15
char id=210  x=160   y=68    width=8     height=17    xoffset=0     yoffset=-1    xadvance=8     page=0  chnl=15
char id=211  x=168   y=68    width=8     height=17    xoffset=0     yoffset=-1    xadvance=8     page=0  chnl=15
char id=212  x=176   y=68    width=8     height=17    xoffset=0     yoffset=-1    xadvance=8     page=0  chnl=15
char id=213  x=217   y=17    width=9     height=17    xoffset=0     yoffset=-1    xadvance=8     page=0  chnl=15
char id=214  x=192   y=68    width=8     height=17    xoffset=0     yoffset=-1    xadvance=8     page=0  chnl=15
char id=215  x=200   y=68    width=8     height=17    xoffset=0     yoffset=-1    xadvance=8     page=0  chnl=15
char id=216  x=208   y=68    width=8     height=17    xoffset=0     yoffset=-1    xadvance=8     page=0  chnl=15
char id=217  x=216   y=68    width=8     height=17    xoffset=0     yoffset=-1    xadvance=8     page=0  chnl=15
char id=218  x=224   y=68    width=8     height=17    xoffset=0     yoffset=-1    xadvance=8     page=0  chnl=15
char id=219  x=232   y=68    width=8     height=17    xoffset=0     yoffset=-1    xadvance=8     page=0  chnl=15
char id=220  x=240   y=68    width=8     height=17    xoffset=0     yoffset=-1    xadvance=8     page=0  chnl=15
char id=221  x=248   y=68    width=8     height=17    xoffset=0     yoffset=-1    xadvance=8     page=0  chnl=15
char id=222  x=0     y=85    width=8     height=17    xoffset=0     yoffset=-1    xadvance=8     page=0  chnl=15
char id=223  x=8     y=85    width=8     height=17    xoffset=0     yoffset=-1    xadvance=8     page=0  chnl=15
char id=224  x=16    y=85    width=8     height=17    xoffset=0     yoffset=-1    xadvance=8     page=0  chnl=15
char id=225  x=24    y=85    width=8     height=17    xoffset=0     yoffset=-1    xadvance=8     page=0  chnl=15
char id=226  x=32    y=85    width=8     height=17    xoffset=0     yoffset=-1    xadvance=8     page=0  chnl=15
char id=227  x=222   y=0     width=10    height=17    xoffset=-1    yoffset=-1    xadvance=8     page=0  chnl=15
char id=228  x=48    y=85    width=8     height=17    xoffset=0     yoffset=-1    xadvance=8     page=0  chnl=15
char id=229  x=56    y=85    width=8     height=17    xoffset=0     yoffset=-1    xadvance=8     page=0  chnl=15
char id=230  x=232   y=0     width=10    height=17    xoffset=-1    yoffset=-1    xadvance=8     page=0  chnl=15
char id=231  x=8     y=102   width=8     height=17    xoffset=0     yoffset=-1    xadvance=8     page=0  chnl=15
char id=232  x=80    y=85    width=8     height=17    xoffset=0     yoffset=-1    xadvance=8     page=0  chnl=15
char id=233  x=88    y=85    width=8     height=17    xoffset=0     yoffset=-1    xadvance=8     page=0  chnl=15
char id=234  x=96    y=85    width=8     height=17    xoffset=0     yoffset=-1    xadvance=8     page=0  chnl=15
char id=235  x=104   y=85    width=8     height=17    xoffset=0     yoffset=-1    xadvance=8     page=0  chnl=15
char id=236  x=112   y=85    width=8     height=17    xoffset=0     yoffset=-1    xadvance=8     page=0  chnl=15
char id=237  x=120   y=85    width=8     height=17    xoffset=0     yoffset=-1    xadvance=8     page=0  chnl=15
char id=238  x=128   y=85    width=8     height=17    xoffset=0     yoffset=-1    xadvance=8     page=0  chnl=15
char id=239  x=136   y=85    width=8     height=17    xoffset=0     yoffset=-1    xadvance=8     page=0  chnl=15
char id=240  x=144   y=85    width=8     height=17    xoffset=0     yoffset=-1    xadvance=8     page=0  chnl=15
char id=241  x=242   y=0     width=10    height=17    xoffset=-1    yoffset=-1    xadvance=8     page=0  chnl=15
char id=242  x=160   y=85    width=8     height=17    xoffset=0     yoffset=-1    xadvance=8     page=0  chnl=15
char id=243  x=168   y=85    width=8     height=17    xoffset=0     yoffset=-1    xadvance=8     page=0  chnl=15
char id=244  x=176   y=85    width=8     height=17    xoffset=0     yoffset=-1    xadvance=8     page=0  chnl=15
char id=245  x=10    y=17    width=10    height=17    xoffset=-1    yoffset=-1    xadvance=8     page=0  chnl=15
char id=246  x=192   y=85    width=8     height=17    xoffset=0     yoffset=-1    xadvance=8     page=0  chnl=15
char id=247  x=200   y=85    width=8     height=17    xoffset=0     yoffset=-1    xadvance=8     page=0  chnl=15
char id=248  x=208   y=85    width=8     height=17    xoffset=0     yoffset=-1    xadvance=8     page=0  chnl=15
char id=249  x=216   y=85    width=8     height=17    xoffset=0     yoffset=-1    xadvance=8     page=0  chnl=15
char id=250  x=224   y=85    width=8     height=17    xoffset=0     yoffset=-1    xadvance=8     page=0  chnl=15
char id=251  x=232   y=85    width=8     height=17    xoffset=0     yoffset=-1    xadvance=8     page=0  chnl=15
char id=252  x=240   y=85    width=8     height=17    xoffset=0     yoffset=-1    xadvance=8     page=0  chnl=15
char id=253  x=9     y=34    width=9     height=17    xoffset=-1    yoffset=-1    xadvance=8     page=0  chnl=15
char id=254  x=0     y=102   width=8     height=17    xoffset=0     yoffset=-1    xadvance=8     page=0  chnl=15
char id=255  x=100   y=17    width=9     height=17    xoffset=-1    yoffset=-1    xadvance=8     page=0  chnl=15
